dwave/prj/simulation/qsim/dwave.msim.vcd
$comment
	File created using the following command:
		vcd file dwave.msim.vcd -direction
$end
$date
	Mon Mar 29 18:58:14 2021
$end
$version
	ModelSim Version 10.4
$end
$timescale
	1ps
$end

$scope module dwave_vlg_vec_tst $end
$var reg 1 ! CLK $end
$var reg 1 " D $end
$var wire 1 # Q $end
$var wire 1 $ Q_n $end
$var wire 1 % sampler $end

$scope module i1 $end
$var wire 1 & gnd $end
$var wire 1 ' vcc $end
$var wire 1 ( unknown $end
$var tri1 1 ) devclrn $end
$var tri1 1 * devpor $end
$var tri1 1 + devoe $end
$var wire 1 , Q~output_o $end
$var wire 1 - Q_n~output_o $end
$var wire 1 . D~input_o $end
$var wire 1 / CLK~input_o $end
$var wire 1 0 inst2~1_combout $end
$var wire 1 1 inst4~combout $end
$upscope $end
$upscope $end
$enddefinitions $end
#0
$dumpvars
0!
0"
x#
x$
x%
0&
1'
x(
1)
1*
1+
x,
x-
0.
0/
x0
x1
$end
#10000
1!
0%
#10649
1/
#11652
10
#12045
11
#15067
0,
0#
#15435
1-
1$
#20000
0!
1%
#20755
0/
#30000
1!
0%
#30649
1/
#40000
0!
1%
#40755
0/
#50000
1!
0%
#50649
1/
#60000
1"
0!
1%
#60649
1.
#60755
0/
#70000
1!
0%
#70649
1/
#71636
00
#72041
01
#74968
1,
1#
#75346
0-
0$
#80000
0!
1%
#80755
0/
#90000
1!
0%
#90649
1/
#100000
0!
1%
#100755
0/
#110000
1!
0%
#110649
1/
#120000
0"
0!
1%
#120755
0/
0.
#130000
1!
0%
#130649
1/
#131652
10
#132045
11
#135067
0,
0#
#135435
1-
1$
#140000
1"
0!
1%
#140649
1.
#140755
0/
#150000
1!
0%
#150649
1/
#151636
00
#152041
01
#154968
1,
1#
#155346
0-
0$
#160000
0"
0!
1%
#160755
0/
0.
#170000
1!
0%
#170649
1/
#171652
10
#172045
11
#175067
0,
0#
#175435
1-
1$
#180000
1"
0!
1%
#180649
1.
#180755
0/
#190000
1!
0%
#190649
1/
#191636
00
#192041
01
#194968
1,
1#
#195346
0-
0$
#200000
0!
1%
#200755
0/
#210000
1!
0%
#210649
1/
#220000
0!
1%
#220755
0/
#230000
1!
0%
#230649
1/
#240000
0"
0!
1%
#240755
0/
0.
#250000
1!
0%
#250649
1/
#251652
10
#252045
11
#255067
0,
0#
#255435
1-
1$
#260000
0!
1%
#260755
0/
#270000
1!
0%
#270649
1/
#280000
0!
1%
#280755
0/
#290000
1!
0%
#290649
1/
#300000
0!
1%
#300755
0/
#310000
1!
0%
#310649
1/
#320000
0!
1%
#320755
0/
#330000
1!
0%
#330649
1/
#340000
1"
0!
1%
#340649
1.
#340755
0/
#350000
1!
0%
#350649
1/
#351636
00
#352041
01
#354968
1,
1#
#355346
0-
0$
#360000
0!
1%
#360755
0/
#370000
1!
0%
#370649
1/
#380000
0!
1%
#380755
0/
#390000
1!
0%
#390649
1/
#400000
0"
0!
1%
#400755
0/
0.
#410000
1!
0%
#410649
1/
#411652
10
#412045
11
#415067
0,
0#
#415435
1-
1$
#420000
1"
0!
1%
#420649
1.
#420755
0/
#430000
1!
0%
#430649
1/
#431636
00
#432041
01
#434968
1,
1#
#435346
0-
0$
#440000
0!
1%
#440755
0/
#450000
1!
0%
#450649
1/
#460000
0!
1%
#460755
0/
#470000
1!
0%
#470649
1/
#480000
0!
1%
#480755
0/
#490000
1!
0%
#490649
1/
#500000
0!
1%
#500755
0/
#510000
1!
0%
#510649
1/
#520000
0!
1%
#520755
0/
#530000
1!
0%
#530649
1/
#540000
0!
1%
#540755
0/
#550000
1!
0%
#550649
1/
#560000
0"
0!
1%
#560755
0/
0.
#570000
1!
0%
#570649
1/
#571652
10
#572045
11
#575067
0,
0#
#575435
1-
1$
#580000
0!
1%
#580755
0/
#590000
1!
0%
#590649
1/
#600000
0!
1%
#600755
0/
#610000
1!
0%
#610649
1/
#620000
0!
1%
#620755
0/
#630000
1!
0%
#630649
1/
#640000
0!
1%
#640755
0/
#650000
1!
0%
#650649
1/
#660000
1"
0!
1%
#660649
1.
#660755
0/
#670000
1!
0%
#670649
1/
#671636
00
#672041
01
#674968
1,
1#
#675346
0-
0$
#680000
0!
1%
#680755
0/
#690000
1!
0%
#690649
1/
#700000
0!
1%
#700755
0/
#710000
1!
0%
#710649
1/
#720000
0"
0!
1%
#720755
0/
0.
#730000
1!
0%
#730649
1/
#731652
10
#732045
11
#735067
0,
0#
#735435
1-
1$
#740000
0!
1%
#740755
0/
#750000
1!
0%
#750649
1/
#760000
0!
1%
#760755
0/
#770000
1!
0%
#770649
1/
#780000
0!
1%
#780755
0/
#790000
1!
0%
#790649
1/
#800000
0!
1%
#800755
0/
#810000
1!
0%
#810649
1/
#820000
1"
0!
1%
#820649
1.
#820755
0/
#830000
1!
0%
#830649
1/
#831636
00
#832041
01
#834968
1,
1#
#835346
0-
0$
#840000
0!
1%
#840755
0/
#850000
1!
0%
#850649
1/
#860000
0!
1%
#860755
0/
#870000
1!
0%
#870649
1/
#880000
0"
0!
1%
#880755
0/
0.
#890000
1!
0%
#890649
1/
#891652
10
#892045
11
#895067
0,
0#
#895435
1-
1$
#900000
1"
0!
1%
#900649
1.
#900755
0/
#910000
1!
0%
#910649
1/
#911636
00
#912041
01
#914968
1,
1#
#915346
0-
0$
#920000
0!
1%
#920755
0/
#930000
1!
0%
#930649
1/
#940000
0!
1%
#940755
0/
#950000
1!
0%
#950649
1/
#960000
0"
0!
1%
#960755
0/
0.
#970000
1!
0%
#970649
1/
#971652
10
#972045
11
#975067
0,
0#
#975435
1-
1$
#980000
1"
0!
1%
#980649
1.
#980755
0/
#990000
1!
0%
#990649
1/
#991636
00
#992041
01
#994968
1,
1#
#995346
0-
0$
